C:\Users\angele.garcia\Documents\workspace-spring-tool-suite-4-4.4.1.RELEASE\springmvcapp\src\main\java\com\softtek\academy\javaweb\springmvcapp\model\Student.java
C:\Users\angele.garcia\Documents\workspace-spring-tool-suite-4-4.4.1.RELEASE\springmvcapp\src\main\java\com\softtek\academy\javaweb\springmvcapp\service\StudentService.java
C:\Users\angele.garcia\Documents\workspace-spring-tool-suite-4-4.4.1.RELEASE\springmvcapp\src\main\java\com\softtek\academy\javaweb\springmvcapp\init\AppInitializer.java
C:\Users\angele.garcia\Documents\workspace-spring-tool-suite-4-4.4.1.RELEASE\springmvcapp\src\main\java\com\softtek\academy\javaweb\springmvcapp\repository\StudentRepository.java
C:\Users\angele.garcia\Documents\workspace-spring-tool-suite-4-4.4.1.RELEASE\springmvcapp\src\main\java\com\softtek\academy\javaweb\sprigmvcapp\dao\StudentDao.java
C:\Users\angele.garcia\Documents\workspace-spring-tool-suite-4-4.4.1.RELEASE\springmvcapp\src\main\java\com\softtek\academy\javaweb\springmvcapp\configuration\JDBCConfiguration.java
C:\Users\angele.garcia\Documents\workspace-spring-tool-suite-4-4.4.1.RELEASE\springmvcapp\src\main\java\com\softtek\academy\javaweb\springmvcapp\service\StudentServiceImpl.java
C:\Users\angele.garcia\Documents\workspace-spring-tool-suite-4-4.4.1.RELEASE\springmvcapp\src\main\java\com\softtek\academy\javaweb\springmvcapp\controller\PersonController.java
